^C:\USERS\FOTIS\DOCUMENTS\VISUAL STUDIO 2013\PROJECTS\PROJECT2\PROJECT2\MAIN.CPP|C:\USERS\FOTIS\DOCUMENTS\VISUAL STUDIO 2013\PROJECTS\PROJECT2\PROJECT2\VARIABLES.CPP
C:\USERS\FOTIS\DOCUMENTS\VISUAL STUDIO 2013\PROJECTS\PROJECT2\PROJECT2\DEBUG\VC120.PDB
C:\USERS\FOTIS\DOCUMENTS\VISUAL STUDIO 2013\PROJECTS\PROJECT2\PROJECT2\DEBUG\VC120.IDB
C:\USERS\FOTIS\DOCUMENTS\VISUAL STUDIO 2013\PROJECTS\PROJECT2\PROJECT2\DEBUG\VARIABLES.OBJ
C:\USERS\FOTIS\DOCUMENTS\VISUAL STUDIO 2013\PROJECTS\PROJECT2\PROJECT2\DEBUG\MAIN.OBJ
^C:\USERS\FOTIS\DOCUMENTS\VISUAL STUDIO 2013\PROJECTS\PROJECT2\PROJECT2\VARIABLES.CPP
C:\USERS\FOTIS\DOCUMENTS\VISUAL STUDIO 2013\PROJECTS\PROJECT2\PROJECT2\DEBUG\VC120.PDB
C:\USERS\FOTIS\DOCUMENTS\VISUAL STUDIO 2013\PROJECTS\PROJECT2\PROJECT2\DEBUG\VC120.IDB
C:\USERS\FOTIS\DOCUMENTS\VISUAL STUDIO 2013\PROJECTS\PROJECT2\PROJECT2\DEBUG\VARIABLES.OBJ
^C:\USERS\FOTIS\DOCUMENTS\VISUAL STUDIO 2013\PROJECTS\PROJECT2\PROJECT2\MAIN.CPP
C:\USERS\FOTIS\DOCUMENTS\VISUAL STUDIO 2013\PROJECTS\PROJECT2\PROJECT2\DEBUG\VC120.PDB
C:\USERS\FOTIS\DOCUMENTS\VISUAL STUDIO 2013\PROJECTS\PROJECT2\PROJECT2\DEBUG\VC120.IDB
C:\USERS\FOTIS\DOCUMENTS\VISUAL STUDIO 2013\PROJECTS\PROJECT2\PROJECT2\DEBUG\MAIN.OBJ
